{'C': 1.0,
 'break_ties': False,
 'cache_size': 200,
 'class_weight': None,
 'coef0': 0.0,
 'decision_function_shape': 'ovr',
 'degree': 3,
 'gamma': 'scale',
 'kernel': 'rbf',
 'max_iter': -1,
 'probability': False,
 'random_state': None,
 'shrinking': True,
 'tol': 0.001,
 'verbose': False}

{'activation': 'relu',
 'alpha': 0.0001,
 'batch_size': 'auto',
 'beta_1': 0.9,
 'beta_2': 0.999,
 'early_stopping': False,
 'epsilon': 1e-08,
 'hidden_layer_sizes': (100,),
 'learning_rate': 'constant',
 'learning_rate_init': 0.001,
 'max_fun': 15000,
 'max_iter': 200,
 'momentum': 0.9,
 'n_iter_no_change': 10,
 'nesterovs_momentum': True,
 'power_t': 0.5,
 'random_state': None,
 'shuffle': True,
 'solver': 'adam',
 'tol': 0.0001,
 'validation_fraction': 0.1,
 'verbose': False,
 'warm_start': False}

{'ccp_alpha': 0.0,
 'class_weight': None,
 'criterion': 'gini',
 'max_depth': None,
 'max_features': None,
 'max_leaf_nodes': None,
 'min_impurity_decrease': 0.0,
 'min_samples_leaf': 1,
 'min_samples_split': 2,
 'min_weight_fraction_leaf': 0.0,
 'random_state': None,
 'splitter': 'best'}
Tue Jan 03 2023 13:05:48 GMT+0300 (GMT+03:00)
